{
  "batch_mode": "truncate_episodes",
  "clip_actions": true,
  "clip_param": 0.1,
  "compress_observations": false,
  "entropy_coeff": 0.1,
  "env": "knights_archers_zombies_v7",
  "framework": "torch",
  "gamma": 0.99,
  "grad_clip": null,
  "lambda": 0.9,
  "log_level": "ERROR",
  "lr": 2e-05,
  "multiagent": {
    "policies": {
      "policy_0": [
        null,
        "Box([[[0. 0. 0.]\n  [0. 0. 0.]\n  [0. 0. 0.]\n  ...\n  [0. 0. 0.]\n  [0. 0. 0.]\n  [0. 0. 0.]]\n\n [[0. 0. 0.]\n  [0. 0. 0.]\n  [0. 0. 0.]\n  ...\n  [0. 0. 0.]\n  [0. 0. 0.]\n  [0. 0. 0.]]\n\n [[0. 0. 0.]\n  [0. 0. 0.]\n  [0. 0. 0.]\n  ...\n  [0. 0. 0.]\n  [0. 0. 0.]\n  [0. 0. 0.]]\n\n ...\n\n [[0. 0. 0.]\n  [0. 0. 0.]\n  [0. 0. 0.]\n  ...\n  [0. 0. 0.]\n  [0. 0. 0.]\n  [0. 0. 0.]]\n\n [[0. 0. 0.]\n  [0. 0. 0.]\n  [0. 0. 0.]\n  ...\n  [0. 0. 0.]\n  [0. 0. 0.]\n  [0. 0. 0.]]\n\n [[0. 0. 0.]\n  [0. 0. 0.]\n  [0. 0. 0.]\n  ...\n  [0. 0. 0.]\n  [0. 0. 0.]\n  [0. 0. 0.]]], [[[1. 1. 1.]\n  [1. 1. 1.]\n  [1. 1. 1.]\n  ...\n  [1. 1. 1.]\n  [1. 1. 1.]\n  [1. 1. 1.]]\n\n [[1. 1. 1.]\n  [1. 1. 1.]\n  [1. 1. 1.]\n  ...\n  [1. 1. 1.]\n  [1. 1. 1.]\n  [1. 1. 1.]]\n\n [[1. 1. 1.]\n  [1. 1. 1.]\n  [1. 1. 1.]\n  ...\n  [1. 1. 1.]\n  [1. 1. 1.]\n  [1. 1. 1.]]\n\n ...\n\n [[1. 1. 1.]\n  [1. 1. 1.]\n  [1. 1. 1.]\n  ...\n  [1. 1. 1.]\n  [1. 1. 1.]\n  [1. 1. 1.]]\n\n [[1. 1. 1.]\n  [1. 1. 1.]\n  [1. 1. 1.]\n  ...\n  [1. 1. 1.]\n  [1. 1. 1.]\n  [1. 1. 1.]]\n\n [[1. 1. 1.]\n  [1. 1. 1.]\n  [1. 1. 1.]\n  ...\n  [1. 1. 1.]\n  [1. 1. 1.]\n  [1. 1. 1.]]], (84, 84, 3), float32)",
        "Discrete(6)",
        {
          "gamma": 0.99,
          "model": {
            "custom_model": "CNNV1"
          }
        }
      ]
    },
    "policy_mapping_fn": "<function <lambda> at 0x0000027AAFA490D0>"
  },
  "num_envs_per_worker": 1,
  "num_gpus": 0,
  "num_sgd_iter": 4,
  "num_workers": 0,
  "rollout_fragment_length": 512,
  "sgd_minibatch_size": 64,
  "train_batch_size": 2048,
  "use_gae": true,
  "vf_loss_coeff": 0.25
}